{
  "app": {
    "end_point": "http://api.mt.desa.qavant.com/"
  },
  "design": {
    "ux": {
      "btn": {
        "action": {
          "background-color": "#28a745",
          "border-color" : "#28a745",
          "color": "#fff"
        },
        "cancel": {
          "background-color": "#343a40",
          "border-color": "#343a40",
          "color": "#fff"
        }
      }
    },
    "colors":{
      "primary" : "red",
      "secundary" : "#8d8e87"
    },
    "titleSection": {
      "color": "#E70155",
      "border-bottom" : "1px solid #E70155",
      "font-size": "24px",
      "line-height": "1",
      "padding": "10px 10px 5px 0px",
      "setPrimaryColorApi" : true
    },
    "title_section_detail": {
      "color": "#00A0C6",
      "font-size": "24px",
      "line-height": "1"
    },
    "cardTitle": {
      "font-size": "18px",
      "color": "red",
      "line-height": "1.2",
      "padding-bottom": "5px",  
      "cursor": "pointer",
      "margin": "0px",
      "setPrimaryColorApi" : true
    },
    "login": {
      "title": {
        "color": "white",
        "font-size": "28px"
      },
      "sub_title" : {
        "color": "white",
        "font-size": "18px"
      }
    }
  }
}
