<?xml version="1.0" encoding="UTF-8"?>
<svg width="24px" height="24px" viewBox="0 0 24 24" version="1.1" xmlns="http://www.w3.org/2000/svg" xmlns:xlink="http://www.w3.org/1999/xlink">
    <!-- Generator: sketchtool 52.6 (67491) - http://www.bohemiancoding.com/sketch -->
    <title>12A70BD6-6F91-47F4-8635-D2444B193C8A</title>
    <desc>Created with sketchtool.</desc>
    <g id="Symbols" stroke="none" stroke-width="1" fill="none" fill-rule="evenodd">
        <g id="Emoticon-/-Surprice">
            <g id="surprise">
                <circle id="Oval" fill="#FFC200" cx="12" cy="12" r="12"></circle>
                <path d="M12,0 C11.683875,0 11.371875,0.0159375 11.0625,0.0399375 C17.2515,0.519 22.125,5.6881875 22.125,12 C22.125,18.3118125 17.2515,23.481 11.0625,23.9600625 C11.371875,23.9840625 11.683875,24 12,24 C18.62775,24 24,18.62775 24,12 C24,5.37225 18.62775,0 12,0 Z" id="Path" fill="#F2B800"></path>
                <g id="Group" transform="translate(4.687500, 5.062500)" fill="#263740" fill-rule="nonzero">
                    <path d="M2.625,5.25 C1.1773125,5.25 0,4.0726875 0,2.625 C0,1.1773125 1.1773125,0 2.625,0 C4.0726875,0 5.25,1.1773125 5.25,2.625 C5.25,4.0726875 4.0726875,5.25 2.625,5.25 Z M2.625,1.125 C1.7979375,1.125 1.125,1.7979375 1.125,2.625 C1.125,3.4520625 1.7979375,4.125 2.625,4.125 C3.4520625,4.125 4.125,3.4520625 4.125,2.625 C4.125,1.7979375 3.4520625,1.125 2.625,1.125 Z" id="Shape"></path>
                    <path d="M12,5.25 C10.5523125,5.25 9.375,4.0726875 9.375,2.625 C9.375,1.1773125 10.5523125,0 12,0 C13.4476875,0 14.625,1.1773125 14.625,2.625 C14.625,4.0726875 13.4476875,5.25 12,5.25 Z M12,1.125 C11.1729375,1.125 10.5,1.7979375 10.5,2.625 C10.5,3.4520625 11.1729375,4.125 12,4.125 C12.8270625,4.125 13.5,3.4520625 13.5,2.625 C13.5,1.7979375 12.8270625,1.125 12,1.125 Z" id="Shape"></path>
                </g>
                <path d="M11.25,20.4375 C8.9754375,20.4375 7.125,18.9234375 7.125,17.0625 C7.125,15.2015625 8.9754375,13.6875 11.25,13.6875 C13.5245625,13.6875 15.375,15.2015625 15.375,17.0625 C15.375,18.9234375 13.5245625,20.4375 11.25,20.4375 Z" id="Path" fill="#F2B800"></path>
                <ellipse id="Oval" fill="#F5F5F5" cx="11.25" cy="17.0625" rx="3.75" ry="3.0680625"></ellipse>
            </g>
        </g>
    </g>
</svg>